"Package","VersionGA","VersionPreview","DisplayName","ServiceName","RepoPath","MSDocs","GHDocs","Type","New","PlannedVersions","FirstGADate","Support","Hide","Replace","Notes"
"sdk/azcore","","0.14.5","Core","Core","azcore","NA","","client","true","","","","","",""
"sdk/azidentity","","0.8.0","Identity","Identity","azidentity","NA","","client","true","","","","","",""
